<?xml version="1.0" encoding="utf-8"?>
<!-- Generator: Adobe Illustrator 19.0.1, SVG Export Plug-In . SVG Version: 6.00 Build 0)  -->
<svg version="1.1" id="Шар_1" xmlns="http://www.w3.org/2000/svg" xmlns:xlink="http://www.w3.org/1999/xlink" x="0px" y="0px"
	 viewBox="0 0 27.2 30.3" style="enable-background:new 0 0 27.2 30.3;" xml:space="preserve">
<style type="text/css">
	.st0{fill:#479AC7;}
	.st1{fill:#3AA1D4;}
</style>
<g>
	<polygon class="st0" points="19.2,6.7 16.4,14.1 21.9,19.8 14.5,16.9 8.8,22.5 11.6,15 6.1,9.3 13.5,12.2 	"/>
	<g>
		<g>
			<path class="st1" d="M20.6,4.5c-0.2-0.2-0.4-0.3-0.5-0.5c-0.1-0.2-0.1-0.4,0-0.6c0.1-0.2,0.2-0.4,0.3-0.6l0.8-1.2
				c0.2-0.2,0.3-0.4,0.5-0.5c0.2-0.1,0.3-0.2,0.5-0.2s0.4,0.1,0.6,0.2c0.2,0.1,0.4,0.3,0.4,0.4s0.1,0.3,0,0.5c0,0.2-0.1,0.4-0.3,0.6
				l-0.2,0.3l-0.4-0.3l0.2-0.2c0.1-0.1,0.1-0.2,0.2-0.3c0.1-0.1,0.1-0.2,0-0.3c0-0.1-0.1-0.2-0.2-0.3c-0.1-0.1-0.2-0.1-0.3-0.1
				S22.1,1.4,22,1.5c-0.1,0.1-0.2,0.2-0.3,0.3l-0.9,1.3c-0.1,0.2-0.2,0.3-0.2,0.4c0,0.1,0,0.2,0,0.3c0,0.1,0.1,0.2,0.2,0.2
				c0.1,0.1,0.2,0.1,0.3,0.1c0.1,0,0.2-0.1,0.3-0.2c0.1-0.1,0.2-0.2,0.3-0.3l0.2-0.3l0.4,0.3l-0.2,0.3c-0.1,0.2-0.3,0.4-0.4,0.5
				c-0.2,0.1-0.3,0.2-0.5,0.2C21,4.8,20.8,4.7,20.6,4.5z"/>
		</g>
	</g>
	<g>
		<g>
			<path class="st1" d="M5.4,28.4C5.1,28.3,5,28.1,4.9,28c-0.1-0.2-0.1-0.4,0-0.6C5,27.2,5.1,27,5.2,26.8l0.3-0.5L5.2,26l-1,1.5
				l-0.4-0.3l2.2-3.4l0.4,0.3l-1,1.5l0.4,0.3l0.3-0.4c0.1-0.2,0.3-0.4,0.5-0.5s0.3-0.2,0.5-0.2c0.2,0,0.4,0.1,0.6,0.2
				s0.4,0.3,0.4,0.5c0.1,0.2,0.1,0.4,0,0.5c-0.1,0.2-0.2,0.4-0.3,0.6l-0.8,1.3c-0.1,0.2-0.3,0.4-0.5,0.5c-0.2,0.1-0.3,0.2-0.5,0.2
				C5.8,28.7,5.6,28.6,5.4,28.4z M5.6,28.1c0.1,0.1,0.2,0.1,0.3,0.1c0.1,0,0.2-0.1,0.3-0.1c0.1-0.1,0.2-0.2,0.2-0.3l1-1.5
				c0.1-0.1,0.1-0.2,0.2-0.3c0-0.1,0-0.2,0-0.3c0-0.1-0.1-0.2-0.2-0.3s-0.2-0.1-0.3-0.1s-0.2,0-0.3,0.1c-0.1,0.1-0.2,0.2-0.2,0.3
				l-1,1.5c-0.1,0.1-0.1,0.2-0.2,0.3c0,0.1,0,0.2,0,0.3C5.4,27.9,5.5,28,5.6,28.1z"/>
		</g>
	</g>
	<g>
		<g>
			<path class="st1" d="M22.7,23l2.2-3.4l0.8,0.5c0.2,0.1,0.3,0.2,0.4,0.3c0.1,0.1,0.2,0.2,0.2,0.3s0,0.2,0,0.4
				c0,0.1-0.1,0.3-0.2,0.4c-0.1,0.1-0.2,0.2-0.3,0.3C25.7,22,25.6,22,25.5,22c-0.1,0-0.2,0-0.3-0.1c0.1,0.1,0.2,0.2,0.2,0.4
				c0,0.1,0,0.3,0,0.4c0,0.1-0.1,0.3-0.2,0.5c-0.1,0.1-0.2,0.3-0.3,0.4c-0.1,0.1-0.2,0.2-0.4,0.2s-0.3,0-0.4,0
				c-0.1,0-0.3-0.1-0.4-0.2L22.7,23z M23.4,23l0.3,0.2c0.2,0.1,0.4,0.2,0.5,0.1c0.1-0.1,0.3-0.2,0.4-0.4c0.1-0.1,0.2-0.3,0.2-0.4
				c0-0.1,0-0.2,0-0.3c0-0.1-0.1-0.2-0.3-0.3l-0.3-0.2L23.4,23z M24.5,21.3l0.3,0.2c0.1,0.1,0.3,0.1,0.3,0.2c0.1,0,0.2,0,0.3-0.1
				c0.1-0.1,0.2-0.2,0.3-0.3c0.1-0.2,0.2-0.3,0.2-0.4c0-0.1,0-0.2-0.1-0.3s-0.2-0.2-0.4-0.3l-0.1-0.1L24.5,21.3z"/>
		</g>
	</g>
	<g>
		<g>
			<path class="st1" d="M1.8,9.2C1.6,9,1.5,8.9,1.4,8.8C1.3,8.6,1.3,8.4,1.3,8.3c0-0.2,0.1-0.3,0.2-0.5l0.1-0.1L2,7.9c0,0,0,0,0,0.1
				C2,8,2,8,2,8C1.9,8.2,1.8,8.3,1.8,8.5c0,0.1,0.1,0.2,0.2,0.3c0.1,0.1,0.2,0.1,0.3,0.1s0.2-0.1,0.3-0.1c0.1-0.1,0.2-0.2,0.2-0.3
				C2.9,8.3,3,8.1,3,7.9c0-0.2-0.1-0.3-0.3-0.5c0,0,0,0,0,0c0,0,0,0,0,0c0,0,0,0,0,0L2.8,7c0,0,0,0,0,0s0,0,0,0s0,0,0,0
				c0.2,0.1,0.4,0.2,0.6,0.1c0.1,0,0.3-0.2,0.4-0.3C4,6.7,4,6.5,4,6.4c0-0.1-0.1-0.3-0.2-0.4C3.6,6,3.5,5.9,3.4,6
				C3.3,6,3.1,6.1,3,6.3c0,0,0,0,0,0.1c0,0,0,0,0,0.1L2.5,6.1L2.6,6C2.7,5.8,2.8,5.7,3,5.6c0.2-0.1,0.3-0.1,0.5-0.1
				c0.2,0,0.4,0.1,0.5,0.2C4.2,5.8,4.3,6,4.4,6.1c0.1,0.2,0.1,0.3,0.1,0.5c0,0.2-0.1,0.4-0.2,0.5C4.2,7.3,4,7.5,3.8,7.5
				c-0.2,0.1-0.3,0.1-0.5,0c0.1,0.1,0.1,0.2,0.2,0.3c0,0.1,0,0.2,0,0.4c0,0.1-0.1,0.3-0.2,0.4C3.1,8.9,3,9.1,2.8,9.2
				C2.7,9.3,2.5,9.4,2.3,9.4C2.2,9.4,2,9.3,1.8,9.2z"/>
		</g>
	</g>
</g>
</svg>
