<?xml version="1.0" encoding="utf-8"?>
<!-- Generator: Adobe Illustrator 19.0.1, SVG Export Plug-In . SVG Version: 6.00 Build 0)  -->
<svg version="1.1" id="Шар_1" xmlns="http://www.w3.org/2000/svg" xmlns:xlink="http://www.w3.org/1999/xlink" x="0px" y="0px"
	 viewBox="0 0 20.4 16.4" style="enable-background:new 0 0 20.4 16.4;" xml:space="preserve">
<style type="text/css">
	.st0{opacity:0.8;}
	.st1{fill:#E8EAEF;}
	.st2{fill:#D6DFE5;}
	.st3{fill:#80BFE6;}
	.st4{fill:#3AA1D4;}
	.st5{fill:#E7A046;}
	.st6{fill:#DE8344;}
</style>
<g class="st0">
	<path class="st1" d="M17.4,14.9c0,0.8-0.7,1.5-1.5,1.5H4.5c-0.8,0-1.5-0.7-1.5-1.5V6.6c0-0.4,0.2-0.8,0.5-1.1l5.7-5.2l0,0l0,0
		C9.6,0.1,9.9,0,10.3,0c0.3,0,0.6,0.1,0.9,0.3l0.1,0l5.7,5.2c0.3,0.2,0.4,0.6,0.5,0.9l0,0.1l0,2.6L17.4,14.9z"/>
	<path class="st2" d="M17.4,14.9c0,0.8-0.7,1.5-1.5,1.5h-5.6V0c0.3,0,0.6,0.1,0.9,0.3l0.1,0l5.7,5.2c0.3,0.2,0.4,0.6,0.5,0.9l0,0.1
		l0,2.6L17.4,14.9z"/>
	<path class="st3" d="M20.1,10c-0.2,0.3-0.5,0.4-0.9,0.4c-0.3,0-0.6-0.1-0.8-0.3l-1.1-1l-7.2-6.5l0,0L3,9.1l-1.1,1
		c-0.2,0.2-0.5,0.3-0.8,0.3c-0.3,0-0.6-0.1-0.9-0.4c-0.4-0.5-0.4-1.2,0.1-1.6l3.1-2.8l5.7-5.2l0,0l0,0C9.6,0.1,9.9,0,10.3,0
		c0.3,0,0.6,0.1,0.9,0.3l0.1,0l5.7,5.2l3.1,2.8C20.5,8.8,20.6,9.5,20.1,10z"/>
	<path class="st4" d="M20.1,10c-0.2,0.3-0.5,0.4-0.9,0.4c-0.3,0-0.6-0.1-0.8-0.3l-1.1-1l-7.2-6.5V0c0.3,0,0.6,0.1,0.9,0.3l0.1,0
		l5.7,5.2l3.1,2.8C20.5,8.8,20.6,9.5,20.1,10z"/>
	<polygon class="st5" points="12.1,11.4 12.6,14 10.2,12.8 7.9,14 8.3,11.4 6.4,9.5 9,9.2 10.2,6.8 11.4,9.2 14,9.5 	"/>
	<polygon class="st6" points="12.1,11.4 12.6,14 10.2,12.8 10.2,6.8 11.4,9.2 14,9.5 	"/>
</g>
</svg>
