<?xml version="1.0" encoding="utf-8"?>
<!-- Generator: Adobe Illustrator 19.0.1, SVG Export Plug-In . SVG Version: 6.00 Build 0)  -->
<svg version="1.1" id="Шар_1" xmlns="http://www.w3.org/2000/svg" xmlns:xlink="http://www.w3.org/1999/xlink" x="0px" y="0px"
	 viewBox="-293.4 417.6 5.8 7.7" style="enable-background:new -293.4 417.6 5.8 7.7;" xml:space="preserve">
<style type="text/css">
	.st0{fill:#FFFFFF;}
</style>
<g>
	<g>
		<path class="st0" d="M-288.1,420.9c0.2,0,0.4,0.2,0.4,0.4v2.7c0,0.7-0.6,1.2-1.2,1.2h-3.3c-0.7,0-1.2-0.6-1.2-1.2v-2.7
			c0-0.2,0.2-0.4,0.4-0.4h4.4v-1c0-1.1-0.9-1.9-1.9-1.9s-1.9,0.9-1.9,1.9c0,0.1-0.1,0.2-0.2,0.2c-0.1,0-0.2-0.1-0.2-0.2c0,0,0,0,0,0
			c0-1.3,1.1-2.4,2.4-2.4c1.3,0,2.3,1.1,2.3,2.4v1H-288.1z M-288.1,421.4h-4.9v2.7c0,0.4,0.4,0.8,0.8,0.8h3.3c0.5,0,0.8-0.4,0.8-0.8
			c0,0,0,0,0,0V421.4z"/>
	</g>
	<g>
		<path class="st0" d="M-290.5,423.9c-0.4,0-0.8-0.4-0.8-0.8s0.4-0.8,0.8-0.8c0.4,0,0.8,0.4,0.8,0.8
			C-289.7,423.6-290.1,423.9-290.5,423.9z M-290.5,422.8c-0.2,0-0.4,0.2-0.4,0.4c0,0.2,0.2,0.4,0.4,0.4c0.2,0,0.4-0.2,0.4-0.4
			C-290.1,422.9-290.3,422.8-290.5,422.8z"/>
	</g>
</g>
</svg>
