<?xml version="1.0" encoding="utf-8"?>
<!-- Generator: Adobe Illustrator 19.0.1, SVG Export Plug-In . SVG Version: 6.00 Build 0)  -->
<svg version="1.1" id="Шар_1" xmlns="http://www.w3.org/2000/svg" xmlns:xlink="http://www.w3.org/1999/xlink" x="0px" y="0px"
	 viewBox="0 0 11.1 7.6" style="enable-background:new 0 0 11.1 7.6;" xml:space="preserve">
<style type="text/css">
	.st0{fill-rule:evenodd;clip-rule:evenodd;fill:#7865A8;}
	.st1{fill-rule:evenodd;clip-rule:evenodd;fill:#689AB2;}
</style>
<g>
	<path class="st0" d="M0.8,6.5c-0.3,0-0.5,0-0.8,0c0,0.3,0,0.7,0,1c1.3,0,2.6,0,3.9,0c0-0.3,0-0.7,0-1c-0.2,0-0.4,0-0.6,0
		C3.5,6,3.7,5.4,3.9,4.9C4.4,5.8,5,6.7,5.5,7.6c0.6-0.9,1.1-1.8,1.7-2.7C7.3,5.4,7.6,6,7.7,6.5c-0.2,0-0.4,0-0.6,0c0,0.3,0,0.7,0,1
		c1.3,0,2.6,0,3.9,0c0-0.3,0-0.7,0-1c-0.3,0-0.5,0-0.8,0C9.4,4.3,8.6,2.2,7.7,0C7,1.3,6.3,2.6,5.5,3.8C4.8,2.5,4.1,1.2,3.3,0
		C2.5,2.2,1.6,4.3,0.8,6.5z"/>
	<path class="st1" d="M3.3,0c0.7,1.2,1.5,2.5,2.2,3.8C6.3,2.6,7,1.3,7.7,0c0.9,2.2,1.7,4.3,2.6,6.5c0.3,0,0.5,0,0.8,0
		c0,0.3,0,0.7,0,1c-1.3,0-2.6,0-3.9,0c0-0.3,0-0.7,0-1c0.2,0,0.4,0,0.6,0C7.6,6,7.3,5.4,7.2,4.9C6.6,5.8,6.1,6.7,5.5,7.6
		C5,6.7,4.4,5.8,3.9,4.9C3.7,5.4,3.5,6,3.3,6.5c0.2,0,0.4,0,0.6,0c0,0.3,0,0.7,0,1c-1.3,0-2.6,0-3.9,0c0-0.3,0-0.7,0-1
		c0.3,0,0.5,0,0.8,0C1.6,4.3,2.5,2.2,3.3,0z"/>
</g>
</svg>
