<?xml version="1.0" encoding="utf-8"?>
<!-- Generator: Adobe Illustrator 19.0.1, SVG Export Plug-In . SVG Version: 6.00 Build 0)  -->
<svg version="1.1" id="Шар_1" xmlns="http://www.w3.org/2000/svg" xmlns:xlink="http://www.w3.org/1999/xlink" x="0px" y="0px"
	 viewBox="-291.4 415.4 10.4 11.5" style="enable-background:new -291.4 415.4 10.4 11.5;" xml:space="preserve">
<style type="text/css">
	.st0{fill:#CCCCCC;}
</style>
<g>
	<g>
		<path class="st0" d="M-281,419.4v5.8h-0.8v1.7h-8.8v-1.7h-0.8v-5.8h0.8v-4h5.9l2.9,2.9v1.1H-281z M-289.9,426.1h7.3v-0.9h-7.3
			V426.1z M-283.1,418.1l-1.4-1.4v1.4H-283.1z M-285.2,418.8v-2.7h-4.6v3.3h7.3v-0.6H-285.2z M-281.8,420.1h-8.9v4.3h8.9V420.1z"/>
	</g>
	<g>
		<path class="st0" d="M-289,423.9h-0.7v-3.1h1c0.6,0,1,0.5,1,1.1c0,0.5-0.5,1-1,1h-0.3V423.9z M-289,422.1h0.3
			c0.2,0,0.3-0.1,0.3-0.3c0-0.2-0.1-0.3-0.3-0.3l0,0h-0.3V422.1z"/>
	</g>
	<g>
		<path class="st0" d="M-285,422.5c0,0.8-0.6,1.4-1.4,1.4h-0.7v-3.1h0.7c0.8,0,1.4,0.6,1.4,1.4V422.5z M-285.8,422.2
			c0-0.3-0.3-0.6-0.6-0.6v1.6c0.3,0,0.6-0.3,0.6-0.6V422.2z"/>
	</g>
	<g>
		<path class="st0" d="M-283.6,423h0.7v-0.7h-0.7v-0.7h1v-0.7h-1.7v3.1h0.8L-283.6,423z"/>
	</g>
</g>
</svg>
