<?xml version="1.0" encoding="utf-8"?>
<!-- Generator: Adobe Illustrator 19.0.1, SVG Export Plug-In . SVG Version: 6.00 Build 0)  -->
<svg version="1.1" id="Шар_1" xmlns="http://www.w3.org/2000/svg" xmlns:xlink="http://www.w3.org/1999/xlink" x="0px" y="0px"
	 viewBox="0 0 6.6 6.8" style="enable-background:new 0 0 6.6 6.8;" xml:space="preserve">
<style type="text/css">
	.st0{fill:#3AA1D4;}
	.st1{fill:#80BFE6;}
</style>
<g>
	<g>
		<path class="st0" d="M3.6,0.3C3.6,0.1,3.4,0,3.3,0C3.1,0,3,0.1,3,0.3v0.2h0.5V0.3z"/>
		<path class="st0" d="M6.6,1.3c0-0.2-0.2-0.4-0.4-0.4H0.4C0.2,0.9,0,1.1,0,1.3v3c0,0.2,0.2,0.4,0.4,0.4h5.8c0.2,0,0.4-0.2,0.4-0.4
			L6.6,1.3L6.6,1.3z"/>
		<path class="st0" d="M6,5.4c0-0.1-0.1-0.3-0.3-0.3c0,0,0,0,0,0H4.9H4.2H3.6H3H2.3H1.7H0.9c0,0,0,0,0,0c-0.1,0-0.3,0.1-0.3,0.3
			c0,0.2,0.1,0.3,0.3,0.3h0.6L1.1,6.3C1,6.5,1.1,6.6,1.2,6.7c0,0,0.1,0,0.1,0c0.1,0,0.2-0.1,0.2-0.1L2,5.7h1v0.8
			c0,0.2,0.1,0.3,0.3,0.3c0.2,0,0.3-0.1,0.3-0.3V5.7h1L5,6.6c0,0.1,0.1,0.1,0.2,0.1c0,0,0.1,0,0.1,0c0.1-0.1,0.2-0.2,0.1-0.4
			L5.2,5.7h0.6C5.9,5.7,6,5.6,6,5.4z"/>
	</g>
	<path class="st1" d="M3.3,0.9H0.4C0.2,0.9,0,1.1,0,1.3v3c0,0.2,0.2,0.4,0.4,0.4h2.9V0.9z"/>
	<path class="st1" d="M3.3,5.2H3H2.3H1.7H0.9c0,0,0,0,0,0c-0.1,0-0.3,0.1-0.3,0.3c0,0.2,0.1,0.3,0.3,0.3h0.6L1.1,6.3
		C1,6.5,1.1,6.6,1.2,6.7c0,0,0.1,0,0.1,0c0.1,0,0.2-0.1,0.2-0.1L2,5.7h1v0.8c0,0.2,0.1,0.3,0.3,0.3V5.2z"/>
	<path class="st1" d="M3.3,0C3.1,0,3,0.1,3,0.3v0.2h0.3V0z"/>
</g>
</svg>
