<?xml version="1.0" encoding="utf-8"?>
<!-- Generator: Adobe Illustrator 19.0.1, SVG Export Plug-In . SVG Version: 6.00 Build 0)  -->
<svg version="1.1" id="Шар_1" xmlns="http://www.w3.org/2000/svg" xmlns:xlink="http://www.w3.org/1999/xlink" x="0px" y="0px"
	 viewBox="-292 415.7 10.6 10.3" style="enable-background:new -292 415.7 10.6 10.3;" xml:space="preserve">
<style type="text/css">
	.st0{fill:#3AA1D4;}
</style>
<path class="st0" d="M-281.5,419.6c-0.1-0.4-0.4-0.6-0.8-0.7l-2.4-0.4l-1.1-2.2c-0.2-0.4-0.6-0.6-1-0.6c-0.4,0-0.7,0.3-0.9,0.6
	l-1.1,2.2l-2.4,0.4c-0.4,0.1-0.7,0.3-0.8,0.7c-0.1,0.4,0,0.8,0.3,1.1l1.7,1.7l-0.4,2.4c-0.1,0.4,0.1,0.8,0.4,1
	c0.4,0.3,0.8,0.3,1.1,0.1l2.2-1.1l2.2,1.2c0.1,0.1,0.3,0.1,0.4,0.1c0.3,0,0.5-0.1,0.7-0.3c0.3-0.2,0.5-0.6,0.4-1l-0.4-2.4l1.7-1.7
	C-281.5,420.3-281.4,419.9-281.5,419.6z"/>
</svg>
